1 code1 milk 20 dairy 5
2 code2 cheese 35 dairy 7
3 code3 bread 22 bakery 2
4 code4 sour_cream 25 dairy 5
5 code5 roll 18 bakery 5
6 code6 apple 30 fruit 11
7 code7 banana 60 shoes 7
8 code8 orange 85 shoes 1
9 code9 cookies 55 shoes 4
10 code10 pork 107 meet 3